ISSS608-VAA - Take-home_Ex01
…
# Check for duplicated data in participants dataset
duplicated_data <- participants[duplicated(participants), ]

duplicated_data

# A tibble: 0 × 7
# ℹ 7 variables: participantId <dbl>, householdSize <dbl>, haveKids <lgl>,
#   age <dbl>, educationLevel <chr>, interestGroup <chr>, joviality <dbl>

# Check for duplicated data in participants dataset
duplicated_data <- financial_journal[duplicated(financial_journal), ]

duplicated_data

# A tibble: 1,113 × 4
   participantId timestamp           category   amount
           <dbl> <dttm>              <chr>       <dbl>
 1             0 2022-03-01 00:00:00 Shelter    -555. 
 2             0 2022-03-01 00:00:00 Education   -38.0
 3             1 2022-03-01 00:00:00 Shelter    -555. 
 4             1 2022-03-01 00:00:00 Education   -38.0
 5             2 2022-03-01 00:00:00 Shelter    -557. 
 6             2 2022-03-01 00:00:00 Education   -12.8
 7             3 2022-03-01 00:00:00 Shelter    -555. 
 8             3 2022-03-01 00:00:00 Education   -38.0
 9             4 2022-03-01 00:00:00 Shelter   -1556. 
10             4 2022-03-01 00:00:00 Education   -12.8
# ℹ 1,103 more rows

Remove Duplicated Data

# Remove duplicated rows
financial_journal <- financial_journal[!duplicated(financial_journal[c("participantId", "timestamp", "category", "amount")]), ]

# Print the updated dataset
print(financial_journal)

# A tibble: 1,512,523 × 4
   participantId timestamp           category  amount
           <dbl> <dttm>              <chr>      <dbl>
 1             0 2022-03-01 00:00:00 Wage      2473. 
 2             0 2022-03-01 00:00:00 Shelter   -555. 
 3             0 2022-03-01 00:00:00 Education  -38.0
 4             1 2022-03-01 00:00:00 Wage      2047. 
 5             1 2022-03-01 00:00:00 Shelter   -555. 
 6             1 2022-03-01 00:00:00 Education  -38.0
 7             2 2022-03-01 00:00:00 Wage      2437. 
 8             2 2022-03-01 00:00:00 Shelter   -557. 
 9             2 2022-03-01 00:00:00 Education  -12.8
10             3 2022-03-01 00:00:00 Wage      2367. 
# ℹ 1,512,513 more rows
…
